{
	"info": {
		"_postman_id": "4e538d67-3e92-44c8-a208-41caa007ce8d",
		"name": "digiclass",
		"schema": "https://schema.getpostman.com/json/collection/v2.1.0/collection.json",
		"_exporter_id": "8714158"
	},
	"item": [
		{
			"name": "Demo 1: Access Token & Authentication",
			"item": [
				{
					"name": "1-[keycloak]-view openid configuration",
					"request": {
						"method": "GET",
						"header": [],
						"url": {
							"raw": "{{keycloak_host}}/keycloak/realms/{{realm}}/.well-known/openid-configuration",
							"host": [
								"{{keycloak_host}}"
							],
							"path": [
								"keycloak",
								"realms",
								"{{realm}}",
								".well-known",
								"openid-configuration"
							]
						}
					},
					"response": []
				},
				{
					"name": "2-login",
					"event": [
						{
							"listen": "test",
							"script": {
								"exec": [
									"var jsonData = JSON.parse(responseBody);",
									"postman.setEnvironmentVariable(\"refresh_token\", jsonData.refresh_token);",
									"postman.setEnvironmentVariable(\"access_token\", jsonData.access_token);"
								],
								"type": "text/javascript"
							}
						}
					],
					"request": {
						"method": "POST",
						"header": [],
						"body": {
							"mode": "urlencoded",
							"urlencoded": [
								{
									"key": "grant_type",
									"value": "password",
									"type": "text"
								},
								{
									"key": "client_id",
									"value": "{{app_client}}",
									"type": "text"
								},
								{
									"key": "username",
									"value": "{{username}}",
									"type": "text"
								},
								{
									"key": "password",
									"value": "{{password}}",
									"type": "text"
								},
								{
									"key": "scope",
									"value": "openid",
									"type": "text"
								}
							]
						},
						"url": {
							"raw": "{{keycloak_host}}/keycloak/realms/{{realm}}/protocol/openid-connect/token",
							"host": [
								"{{keycloak_host}}"
							],
							"path": [
								"keycloak",
								"realms",
								"{{realm}}",
								"protocol",
								"openid-connect",
								"token"
							]
						}
					},
					"response": []
				},
				{
					"name": "3-introspect",
					"request": {
						"method": "POST",
						"header": [],
						"body": {
							"mode": "urlencoded",
							"urlencoded": [
								{
									"key": "client_id",
									"value": "{{backend_client}}",
									"type": "text"
								},
								{
									"key": "client_secret",
									"value": "{{backend_client_secret}}",
									"type": "text"
								},
								{
									"key": "token",
									"value": "{{access_token}}",
									"type": "text"
								}
							]
						},
						"url": {
							"raw": "{{keycloak_host}}/keycloak/realms/{{realm}}/protocol/openid-connect/token/introspect",
							"host": [
								"{{keycloak_host}}"
							],
							"path": [
								"keycloak",
								"realms",
								"{{realm}}",
								"protocol",
								"openid-connect",
								"token",
								"introspect"
							]
						}
					},
					"response": []
				},
				{
					"name": "4-api required authen",
					"request": {
						"method": "GET",
						"header": [
							{
								"key": "Authorization",
								"value": "Bearer {{access_token}}",
								"type": "text"
							}
						],
						"url": {
							"raw": "{{api_host}}/transaction-history-service/restapi/v1/auth-test",
							"host": [
								"{{api_host}}"
							],
							"path": [
								"transaction-history-service",
								"restapi",
								"v1",
								"auth-test"
							]
						}
					},
					"response": []
				},
				{
					"name": "5-logout",
					"request": {
						"auth": {
							"type": "noauth"
						},
						"method": "POST",
						"header": [
							{
								"key": "Authorization",
								"value": "Bearer {{access_token}}",
								"type": "text"
							}
						],
						"body": {
							"mode": "urlencoded",
							"urlencoded": [
								{
									"key": "client_id",
									"value": "{{app_client}}",
									"type": "text"
								},
								{
									"key": "refresh_token",
									"value": "{{refresh_token}}",
									"type": "text"
								}
							]
						},
						"url": {
							"raw": "{{keycloak_host}}/keycloak/realms/{{realm}}/protocol/openid-connect/logout",
							"host": [
								"{{keycloak_host}}"
							],
							"path": [
								"keycloak",
								"realms",
								"{{realm}}",
								"protocol",
								"openid-connect",
								"logout"
							]
						}
					},
					"response": []
				}
			]
		},
		{
			"name": "Demo 4 - Transactional messaging",
			"item": [
				{
					"name": "1-[limit-service]-View current limit",
					"request": {
						"method": "GET",
						"header": [],
						"url": {
							"raw": "{{api_host}}/limit-service/restapi/v1/product-limits",
							"host": [
								"{{api_host}}"
							],
							"path": [
								"limit-service",
								"restapi",
								"v1",
								"product-limits"
							]
						}
					},
					"response": []
				},
				{
					"name": "2-[product-service]-update limit",
					"request": {
						"method": "POST",
						"header": [],
						"body": {
							"mode": "raw",
							"raw": "{\n  \"productCode\": \"INTERNAL_TRANSFER\",\n  \"dailyLimit\": 111222333\n}",
							"options": {
								"raw": {
									"language": "json"
								}
							}
						},
						"url": {
							"raw": "{{api_host}}/product-service/api/v1/product-limit/update",
							"host": [
								"{{api_host}}"
							],
							"path": [
								"product-service",
								"api",
								"v1",
								"product-limit",
								"update"
							]
						}
					},
					"response": []
				},
				{
					"name": "3-[product-service]-list message",
					"request": {
						"method": "GET",
						"header": [],
						"url": {
							"raw": "{{api_host}}/product-service/api/v1/product-events",
							"host": [
								"{{api_host}}"
							],
							"path": [
								"product-service",
								"api",
								"v1",
								"product-events"
							]
						}
					},
					"response": []
				},
				{
					"name": "4-[limit-service]-View updated daily limit",
					"request": {
						"method": "GET",
						"header": [],
						"url": {
							"raw": "{{api_host}}/limit-service/restapi/v1/product-limits",
							"host": [
								"{{api_host}}"
							],
							"path": [
								"limit-service",
								"restapi",
								"v1",
								"product-limits"
							]
						}
					},
					"response": []
				}
			]
		},
		{
			"name": "Demo 5 - Saga",
			"item": [
				{
					"name": "1-[limit-service]-retrieve current limit",
					"request": {
						"method": "POST",
						"header": [],
						"body": {
							"mode": "raw",
							"raw": "{\n  \"user\": \"user_1\",\n  \"date\": \"2023-07-24T01:48:32.46Z\",\n  \"productCode\": \"INTERNAL_TRANSFER\"\n}",
							"options": {
								"raw": {
									"language": "json"
								}
							}
						},
						"url": {
							"raw": "{{api_host}}/limit-service/restapi/v1/user-lmit",
							"host": [
								"{{api_host}}"
							],
							"path": [
								"limit-service",
								"restapi",
								"v1",
								"user-lmit"
							]
						}
					},
					"response": []
				},
				{
					"name": "2-[internal-transfer-service]-SAGA - txnsuccess",
					"request": {
						"method": "POST",
						"header": [],
						"body": {
							"mode": "raw",
							"raw": "{\n  \"clientTransactionId\": \"{{$guid}}\",\n  \"productId\": \"a51fea9c-ea7a-4a02-bfd4-0eec3aa55a5a\",\n  \"productCode\": \"INTERNAL_TRANSFER\",\n  \"fromCif\": \"user_1\",\n  \"beneficiary\": \"user_4\",\n  \"amount\": 1000,\n  \"demoFail\": false\n}",
							"options": {
								"raw": {
									"language": "json"
								}
							}
						},
						"url": {
							"raw": "{{api_host}}/internal-transfer-service/restapi/v1/internal-transfer/init",
							"host": [
								"{{api_host}}"
							],
							"path": [
								"internal-transfer-service",
								"restapi",
								"v1",
								"internal-transfer",
								"init"
							]
						}
					},
					"response": []
				},
				{
					"name": "3-[limit-service]-retrieve updated limit",
					"request": {
						"method": "POST",
						"header": [],
						"body": {
							"mode": "raw",
							"raw": "{\n  \"user\": \"user_1\",\n  \"date\": \"2023-07-24T01:48:32.46Z\",\n  \"productCode\": \"INTERNAL_TRANSFER\"\n}",
							"options": {
								"raw": {
									"language": "json"
								}
							}
						},
						"url": {
							"raw": "{{api_host}}/limit-service/restapi/v1/user-lmit",
							"host": [
								"{{api_host}}"
							],
							"path": [
								"limit-service",
								"restapi",
								"v1",
								"user-lmit"
							]
						}
					},
					"response": []
				},
				{
					"name": "4-[code&db review event sourcing]",
					"request": {
						"method": "GET",
						"header": []
					},
					"response": []
				},
				{
					"name": "5-[internal-transfer-service]-SAGA - txn fail",
					"request": {
						"method": "POST",
						"header": [],
						"body": {
							"mode": "raw",
							"raw": "{\n  \"clientTransactionId\": \"{{$guid}}\",\n  \"productId\": \"a51fea9c-ea7a-4a02-bfd4-0eec3aa55a5a\",\n  \"productCode\": \"INTERNAL_TRANSFER\",\n  \"fromCif\": \"user_1\",\n  \"beneficiary\": \"user_4\",\n  \"amount\": 1000,\n  \"demoFail\": true\n}",
							"options": {
								"raw": {
									"language": "json"
								}
							}
						},
						"url": {
							"raw": "{{api_host}}/internal-transfer-service/restapi/v1/internal-transfer/init",
							"host": [
								"{{api_host}}"
							],
							"path": [
								"internal-transfer-service",
								"restapi",
								"v1",
								"internal-transfer",
								"init"
							]
						}
					},
					"response": []
				},
				{
					"name": "6-[limit-service]-show reserved limit",
					"request": {
						"method": "POST",
						"header": [],
						"body": {
							"mode": "raw",
							"raw": "{\n  \"user\": \"user_1\",\n  \"date\": \"2023-07-24T01:48:32.46Z\",\n  \"productCode\": \"INTERNAL_TRANSFER\"\n}",
							"options": {
								"raw": {
									"language": "json"
								}
							}
						},
						"url": {
							"raw": "{{api_host}}/limit-service/restapi/v1/user-lmit",
							"host": [
								"{{api_host}}"
							],
							"path": [
								"limit-service",
								"restapi",
								"v1",
								"user-lmit"
							]
						}
					},
					"response": []
				},
				{
					"name": "7-[limit-service]-show rollback limit (10s)",
					"request": {
						"method": "POST",
						"header": [],
						"body": {
							"mode": "raw",
							"raw": "{\n  \"user\": \"user_1\",\n  \"date\": \"2023-07-24T01:48:32.46Z\",\n  \"productCode\": \"INTERNAL_TRANSFER\"\n}",
							"options": {
								"raw": {
									"language": "json"
								}
							}
						},
						"url": {
							"raw": "{{api_host}}/limit-service/restapi/v1/user-lmit",
							"host": [
								"{{api_host}}"
							],
							"path": [
								"limit-service",
								"restapi",
								"v1",
								"user-lmit"
							]
						}
					},
					"response": []
				},
				{
					"name": "6-[show log in ms]",
					"request": {
						"method": "GET",
						"header": []
					},
					"response": []
				}
			]
		},
		{
			"name": "Demo 8 - CRQS",
			"item": [
				{
					"name": "1-login",
					"event": [
						{
							"listen": "test",
							"script": {
								"exec": [
									"var jsonData = JSON.parse(responseBody);",
									"postman.setEnvironmentVariable(\"refresh_token\", jsonData.refresh_token);",
									"postman.setEnvironmentVariable(\"access_token\", jsonData.access_token);"
								],
								"type": "text/javascript"
							}
						}
					],
					"request": {
						"method": "POST",
						"header": [],
						"body": {
							"mode": "urlencoded",
							"urlencoded": [
								{
									"key": "grant_type",
									"value": "password",
									"type": "text"
								},
								{
									"key": "client_id",
									"value": "{{app_client}}",
									"type": "text"
								},
								{
									"key": "username",
									"value": "{{username}}",
									"type": "text"
								},
								{
									"key": "password",
									"value": "{{password}}",
									"type": "text"
								},
								{
									"key": "scope",
									"value": "openid",
									"type": "text"
								}
							]
						},
						"url": {
							"raw": "{{keycloak_host}}/keycloak/realms/{{realm}}/protocol/openid-connect/token",
							"host": [
								"{{keycloak_host}}"
							],
							"path": [
								"keycloak",
								"realms",
								"{{realm}}",
								"protocol",
								"openid-connect",
								"token"
							]
						}
					},
					"response": []
				},
				{
					"name": "2-[transaction-history-service]-retrieve history",
					"protocolProfileBehavior": {
						"disableBodyPruning": true
					},
					"request": {
						"method": "GET",
						"header": [
							{
								"key": "Authorization",
								"value": "Bearer {{access_token}}",
								"type": "text"
							}
						],
						"body": {
							"mode": "raw",
							"raw": "",
							"options": {
								"raw": {
									"language": "json"
								}
							}
						},
						"url": {
							"raw": "{{api_host}}/transaction-history-service/restapi/v1/txn",
							"host": [
								"{{api_host}}"
							],
							"path": [
								"transaction-history-service",
								"restapi",
								"v1",
								"txn"
							]
						}
					},
					"response": []
				}
			]
		}
	]
}